<?xml version="1.0" encoding="UTF-8" standalone="no"?>
<svg
   viewBox="0 0 512 512"
   version="1.1"
   id="svg4"
   sodipodi:docname="repeat-active.svg"
   inkscape:version="1.2.2 (b0a8486541, 2022-12-01)"
   xmlns:inkscape="http://www.inkscape.org/namespaces/inkscape"
   xmlns:sodipodi="http://sodipodi.sourceforge.net/DTD/sodipodi-0.dtd"
   xmlns="http://www.w3.org/2000/svg"
   xmlns:svg="http://www.w3.org/2000/svg">
  <defs
     id="defs8" />
  <sodipodi:namedview
     id="namedview6"
     pagecolor="#ffffff"
     bordercolor="#000000"
     borderopacity="0.25"
     inkscape:showpageshadow="2"
     inkscape:pageopacity="0.0"
     inkscape:pagecheckerboard="0"
     inkscape:deskcolor="#d1d1d1"
     showgrid="false"
     inkscape:zoom="1.1684755"
     inkscape:cx="68.03737"
     inkscape:cy="283.703"
     inkscape:window-width="1704"
     inkscape:window-height="964"
     inkscape:window-x="0"
     inkscape:window-y="0"
     inkscape:window-maximized="1"
     inkscape:current-layer="layer1"
     showguides="false" />
  <!--! Font Awesome Pro 6.3.0 by @fontawesome - https://fontawesome.com License - https://fontawesome.com/license (Commercial License) Copyright 2023 Fonticons, Inc. -->
  <path
     id="path217"
     d="m 334,12 -34,28 30,32 H 14 V 224 H 60 V 120 h 270 l -30,32 34,32 76,-85 z"
     sodipodi:nodetypes="cccccccccccc"
     style="display:none" />
  <g
     inkscape:groupmode="layer"
     id="layer1"
     inkscape:label="Layer 1">
    <path
       d="m 161,480 34,-30 -30,-34 c 112.96852,0.43295 218.51794,0.0192 316,0 V 256 H 427 V 360 H 165 L 194.75,326 161,296 85,387 Z"
       id="path456"
       sodipodi:nodetypes="cccccccccccc" />
    <path
       d="m 351,32 -34,30 29.6935,34 C 233.72498,95.56705 128.48206,95.9808 31,96 V 256 H 85 V 152 H 346.6935 L 317,186 l 34,30 76,-91 z"
       id="path456-6"
       sodipodi:nodetypes="cccccccccccc" />
  </g>
</svg>
