<?xml version="1.0" encoding="UTF-8" standalone="no"?>
<svg
   viewBox="0 0 640 512"
   version="1.1"
   id="svg4"
   sodipodi:docname="volume-empty.svg"
   inkscape:version="1.2.2 (b0a8486541, 2022-12-01)"
   xmlns:inkscape="http://www.inkscape.org/namespaces/inkscape"
   xmlns:sodipodi="http://sodipodi.sourceforge.net/DTD/sodipodi-0.dtd"
   xmlns="http://www.w3.org/2000/svg"
   xmlns:svg="http://www.w3.org/2000/svg">
  <defs
     id="defs8" />
  <sodipodi:namedview
     id="namedview6"
     pagecolor="#ffffff"
     bordercolor="#000000"
     borderopacity="0.25"
     inkscape:showpageshadow="2"
     inkscape:pageopacity="0.0"
     inkscape:pagecheckerboard="0"
     inkscape:deskcolor="#d1d1d1"
     showgrid="false"
     inkscape:zoom="0.92717814"
     inkscape:cx="368.32188"
     inkscape:cy="345.67252"
     inkscape:window-width="1704"
     inkscape:window-height="964"
     inkscape:window-x="0"
     inkscape:window-y="0"
     inkscape:window-maximized="1"
     inkscape:current-layer="svg4" />
  <!--! Font Awesome Pro 6.3.0 by @fontawesome - https://fontawesome.com License - https://fontawesome.com/license (Commercial License) Copyright 2023 Fonticons, Inc. -->
  <path
     id="path2"
     d="m 288,32 c -7.58884,0.0791 -15.42602,2.750012 -21.301,8 L 131.80078,160 H 64 C 28.70007,160 0,188.70008 0,224 v 64 c 0,35.29992 28.70007,64 64,64 h 67.80078 L 277,472 c 9.39998,8.39998 11.50002,11.19998 23,6 11.49998,-5.2 20,-17.40002 20,-30 V 64 c 0,-12.599974 -8.50002,-23.80001 -20,-29 -4.3125,-1.912496 -7.44668,-3.047461 -12,-3 z m 185.09961,75 c -315.39974,-71.333333 -157.69987,-35.666667 0,0 z"
     sodipodi:nodetypes="sccssssccssscscc"
     sodipodi:insensitive="true" />
  <path
     d="m 416.763,166.1 55,55 55,-55 c 9.4,-9.4 24.6,-9.4 33.9,0 9.3,9.4 9.4,24.6 0,33.9 l -55,55 55,55 c 9.4,9.4 9.4,24.6 0,33.9 -9.4,9.3 -24.6,9.4 -33.9,0 l -55,-55 -55,55 c -9.4,9.4 -24.6,9.4 -33.9,0 -9.3,-9.4 -9.4,-24.6 0,-33.9 l 55,-55 -55,-55 c -9.4,-9.4 -9.4,-24.6 0,-33.9 9.4,-9.3 24.6,-9.4 33.9,0 z"
     id="path319"
     sodipodi:nodetypes="ccssccssccssccssc"
     style="display:inline" />
</svg>
